{
  "api": {
    "facebook": {
      "appId": "507934389270661",
      "appSecret": "567c3836320fcb1e6e6e72757ecba54a"
    },
    "google": {
      "clientId": "373266382333.apps.googleusercontent.com",
      "clientSecret": "2_Pd-9XyjoW8Rn-tK6i5Zi6X"
    },
    "twitter": {
      "accessToken": "40758997-eEhOYOXM2WqNCq5EBAogktWBYadYeu0BPnpMemGsw",
      "accessTokenSecret": "cZzcJp6hA4A9ByGNa9yErAwCsMhDfNifQENULmbAZV4",
      "consumerKey": "ofORVq9Rth3BBvScEaq8GA",
      "consumerSecret": "XoHjL80JiBY3Iq7TBFwqQl37CoDJcABazmOJEZoc"
    }
  },
  "aws": {
    "key": "@@@@@",
    "secret": "@@@@@",
    "s3": {
      "buckets": {
        "main": "ultimate"
      }
    }
  },
  "cookie": {
    "secret": "ultimate"
  },
  "db": {
    "mongo": {
      "host": "localhost",
      "port": 27017,
      "username": null,
      "password": null,
      "db": "ultimate"
    },
    "redis": {
      "host": "localhost",
      "port": 6379,
      "password": null
    }
  },
  "repl": {
    "socket": "/tmp/ultimate-repl"
  },
  "session": {
    "key": "sid",
    "secret": "ultimate",
    "store": {
      "_use": "mongo",
      "mongo": {
        "collection": "sessions"
      },
      "redis": {
        "prefix": "ultimate:sessions"
      }
    }
  }
}
